Flight ID,Rigid Body Name,Quadrotor,Initial Yaw Offset,Onboard Name,OB Path,Indoor or Outdoor,Flight controller,Batteries,Mode,Mass,Drone Config File,Drone Config Path,LOC Type,time LOC (start),time LOC (end),Comments
27,CineGo,CineGo,90,Flight27_btfl_025,data/raw/CineGo/Onboard/YawLOC-2023-02-27,Indoor,betaflight,4S,LOS,265,CineGo-NDConfig,data,,,,SysID Flight
32,CineGo,CineGo,90,Flight32_btfl_030,data/raw/CineGo/Onboard/YawLOC-2023-02-27,Indoor,betaflight,4S,LOS,265,CineGo-NDConfig,data,,,,Hover Yaw and Throttle 
37,CineGo,CineGo,90,Flight37_btfl_035,data/raw/CineGo/Onboard/YawLOC-2023-02-27,Indoor,betaflight,4S,LOS,265,CineGo-NDConfig,data,,,,SysID Flight
38,CineGo,CineGo,90,Flight38_btfl_036,data/raw/CineGo/Onboard/YawLOC-2023-02-27,Indoor,betaflight,4S,LOS,265,CineGo-NDConfig,data,,,,SysID Flight
51,CineGo,CineGo,90,Flight51_btfl_014,data/raw/CineGo/Onboard/YawLOC-2023-02-27,Indoor,betaflight,4S,LOS,265,CineGo-NDConfig,data,Saturation-Yaw,11.595481,13.259981,100% succesfull :D Higher altitude 
54,CineGo,CineGo,,Flight54_btfl_017,data/raw/CineGo/Onboard/YawLOC-2023-02-27,Indoor,betaflight,4S,LOS,265,CineGo-NDConfig,data,Saturation-Yaw,12.301697,14.345073,100% succesfull :D
63,CineGo,CineGo,90,Flight7_btfl_024,data/raw/CineGo/Onboard/YawLOC-2023-02-28,Indoor,betaflight,4S,LOS,263,CineGo-NDConfig,data,Saturation-Yaw,9.236015,11.53689,Succesfull!
64,CineGo,CineGo,90,Flight8_btfl_025,data/raw/CineGo/Onboard/YawLOC-2023-02-28,Indoor,betaflight,4S,LOS,263,CineGo-NDConfig,data,Saturation-Yaw,8.229851,11.006475,Successful!
66,CineGo,CineGo,90,Flight10_btfl_027,data/raw/CineGo/Onboard/YawLOC-2023-02-28,Indoor,betaflight,4S,LOS,263,CineGo-NDConfig,data,Saturation-Yaw,9.182401,11.59503,Successful!
67,CineGo,CineGo,90,Flight11_btfl_028,data/raw/CineGo/Onboard/YawLOC-2023-02-28,Indoor,betaflight,4S,LOS,263,CineGo-NDConfig,data,Saturation-Yaw,12.552129,14.047379,Succesfull!
68,CineGo,CineGo,90,Flight12_btfl_029,data/raw/CineGo/Onboard/YawLOC-2023-02-28,Indoor,betaflight,4S,LOS,263,CineGo-NDConfig,data,Saturation-Yaw,8.927248,11.349123,Succesfull!
126,CineGo,CineGo,120,Flight28_btfl_061,data/raw/CineGo/Onboard/YawLOC-2023-03-06,Indoor,betaflight,4S,LOS,263,CineGo-NDConfig,data,Saturation-Yaw,11.470628,13.603249,Successful!
127,CineGo,CineGo,121,Flight29_btfl_063,data/raw/CineGo/Onboard/YawLOC-2023-03-06,Indoor,betaflight,4S,LOS,263,CineGo-NDConfig,data,Saturation-Yaw,9.325562,11.664811,Successful!
128,CineGo,CineGo,122,Flight30_btfl_065,data/raw/CineGo/Onboard/YawLOC-2023-03-06,Indoor,betaflight,4S,LOS,263,CineGo-NDConfig,data,Saturation-Yaw,15.209598,17.323848,Successful!
